{
  "project_info": {
    "project_number": "1092806820503",
    "firebase_url": "https://giga-preview.firebaseio.com",
    "project_id": "giga-preview",
    "storage_bucket": "giga-preview.appspot.com"
  },
  "client": [
    {
      "client_info": {
        "mobilesdk_app_id": "1:1092806820503:android:963ee7a37a3423c0",
        "android_client_info": {
          "package_name": "com.starhub.giga.preview"
        }
      },
      "oauth_client": [
        {
          "client_id": "1092806820503-v0kj1nhc7u9u2h7p9lfoiltn9ma9dsq6.apps.googleusercontent.com",
          "client_type": 3
        }
      ],
      "api_key": [
        {
          "current_key": "AIzaSyDfeWAKhPqZzGqL0XlPSt-2n-Kt-MWtLvQ"
        }
      ],
      "services": {
        "appinvite_service": {
          "other_platform_oauth_client": [
            {
              "client_id": "1092806820503-v0kj1nhc7u9u2h7p9lfoiltn9ma9dsq6.apps.googleusercontent.com",
              "client_type": 3
            }
          ]
        }
      }
    }
  ],
  "configuration_version": "1"
}